{
    "version": "14.0.0",
    "vulnerabilities": [
      {
        "id": "4a8ec41840193903331e93b9942a58409aa576fe674c0ae1b3b08dce4056e545",
        "category": "sast",
        "name": "node_sqli_injection",
        "message": "Untrusted input concatinated with raw SQL query can result in SQL Injection.",
        "description": "Untrusted input concatinated with raw SQL query can result in SQL Injection.",
        "cve": "public/vendor/backpack/select2/select2.js:1664:node_sqli_injection:CWE-89",
        "severity": "High",
        "scanner": {
          "id": "nodejs-scan",
          "name": "NodeJsScan"
        },
        "location": {
          "file": "public/vendor/backpack/select2/select2.js",
          "start_line": 1664,
          "end_line": 1703
        },
        "identifiers": [
          {
            "type": "njsscan_rule_type",
            "name": "node_sqli_injection",
            "value": "Untrusted input concatinated with raw SQL query can result in SQL Injection."
          },
          {
            "type": "cwe",
            "name": "CWE-89",
            "value": "node_sqli_injection"
          }
        ]
      },
      {
        "id": "a3de90694577ed8e5ff7c6f2cc3ac9e1d45765be8a3d03e4254f5fba295b17b3",
        "category": "sast",
        "name": "node_sqli_injection",
        "message": "Untrusted input concatinated with raw SQL query can result in SQL Injection.",
        "description": "Untrusted input concatinated with raw SQL query can result in SQL Injection.",
        "cve": "public/vendor/backpack/select2/select2.js:1677:node_sqli_injection:CWE-89",
        "severity": "High",
        "scanner": {
          "id": "nodejs-scan",
          "name": "NodeJsScan"
        },
        "location": {
          "file": "public/vendor/backpack/select2/select2.js",
          "start_line": 1677,
          "end_line": 1702
        },
        "identifiers": [
          {
            "type": "njsscan_rule_type",
            "name": "node_sqli_injection",
            "value": "Untrusted input concatinated with raw SQL query can result in SQL Injection."
          },
          {
            "type": "cwe",
            "name": "CWE-89",
            "value": "node_sqli_injection"
          }
        ]
      },
      {
        "id": "805b9fc52b725ffd7636a41f09c8f59c9df62303b27597be280b733c841102ba",
        "category": "sast",
        "name": "node_sqli_injection",
        "message": "Untrusted input concatinated with raw SQL query can result in SQL Injection.",
        "description": "Untrusted input concatinated with raw SQL query can result in SQL Injection.",
        "cve": "public/vendor/backpack/select2/select2.js:1718:node_sqli_injection:CWE-89",
        "severity": "High",
        "scanner": {
          "id": "nodejs-scan",
          "name": "NodeJsScan"
        },
        "location": {
          "file": "public/vendor/backpack/select2/select2.js",
          "start_line": 1718,
          "end_line": 1861
        },
        "identifiers": [
          {
            "type": "njsscan_rule_type",
            "name": "node_sqli_injection",
            "value": "Untrusted input concatinated with raw SQL query can result in SQL Injection."
          },
          {
            "type": "cwe",
            "name": "CWE-89",
            "value": "node_sqli_injection"
          }
        ]
      },
      {
        "id": "a0eb736c32736fa3dadc60ea00e4d64bc41c94f42e359bbd9499f315cfa802be",
        "category": "sast",
        "name": "node_sqli_injection",
        "message": "Untrusted input concatinated with raw SQL query can result in SQL Injection.",
        "description": "Untrusted input concatinated with raw SQL query can result in SQL Injection.",
        "cve": "public/vendor/backpack/select2/select2.js:1801:node_sqli_injection:CWE-89",
        "severity": "High",
        "scanner": {
          "id": "nodejs-scan",
          "name": "NodeJsScan"
        },
        "location": {
          "file": "public/vendor/backpack/select2/select2.js",
          "start_line": 1801,
          "end_line": 1861
        },
        "identifiers": [
          {
            "type": "njsscan_rule_type",
            "name": "node_sqli_injection",
            "value": "Untrusted input concatinated with raw SQL query can result in SQL Injection."
          },
          {
            "type": "cwe",
            "name": "CWE-89",
            "value": "node_sqli_injection"
          }
        ]
      },
      {
        "id": "1fe067f0d21340c643877f9eeb404f809b4b1da2b133a5d2a5be0d06e4d68f06",
        "category": "sast",
        "name": "node_sqli_injection",
        "message": "Untrusted input concatinated with raw SQL query can result in SQL Injection.",
        "description": "Untrusted input concatinated with raw SQL query can result in SQL Injection.",
        "cve": "public/vendor/backpack/select2/select2.js:2376:node_sqli_injection:CWE-89",
        "severity": "High",
        "scanner": {
          "id": "nodejs-scan",
          "name": "NodeJsScan"
        },
        "location": {
          "file": "public/vendor/backpack/select2/select2.js",
          "start_line": 2376,
          "end_line": 2387
        },
        "identifiers": [
          {
            "type": "njsscan_rule_type",
            "name": "node_sqli_injection",
            "value": "Untrusted input concatinated with raw SQL query can result in SQL Injection."
          },
          {
            "type": "cwe",
            "name": "CWE-89",
            "value": "node_sqli_injection"
          }
        ]
      },
      {
        "id": "7b87d3255a1fc8533d30c475a680688d8c86e15876368fbb7412bf4053cffe37",
        "category": "sast",
        "name": "node_sqli_injection",
        "message": "Untrusted input concatinated with raw SQL query can result in SQL Injection.",
        "description": "Untrusted input concatinated with raw SQL query can result in SQL Injection.",
        "cve": "public/vendor/backpack/select2/select2.js:2645:node_sqli_injection:CWE-89",
        "severity": "High",
        "scanner": {
          "id": "nodejs-scan",
          "name": "NodeJsScan"
        },
        "location": {
          "file": "public/vendor/backpack/select2/select2.js",
          "start_line": 2645,
          "end_line": 2672
        },
        "identifiers": [
          {
            "type": "njsscan_rule_type",
            "name": "node_sqli_injection",
            "value": "Untrusted input concatinated with raw SQL query can result in SQL Injection."
          },
          {
            "type": "cwe",
            "name": "CWE-89",
            "value": "node_sqli_injection"
          }
        ]
      },
      {
        "id": "3f753834325780b87031d0848e592e854d9ef555f7ac67a32598a96c211a4016",
        "category": "sast",
        "name": "regex_dos",
        "message": "Ensure that the regex used to compare with user supplied input is safe from regular expression denial of service.",
        "description": "Ensure that the regex used to compare with user supplied input is safe from regular expression denial of service.",
        "cve": "public/vendor/adminlte/plugins/bootstrap-slider/bootstrap-slider.js:1494:regex_dos:CWE-185",
        "severity": "Medium",
        "scanner": {
          "id": "nodejs-scan",
          "name": "NodeJsScan"
        },
        "location": {
          "file": "public/vendor/adminlte/plugins/bootstrap-slider/bootstrap-slider.js",
          "start_line": 1494,
          "end_line": 1504
        },
        "identifiers": [
          {
            "type": "njsscan_rule_type",
            "name": "regex_dos",
            "value": "Ensure that the regex used to compare with user supplied input is safe from regular expression denial of service."
          },
          {
            "type": "cwe",
            "name": "CWE-185",
            "value": "regex_dos"
          }
        ]
      },
      {
        "id": "91fe3a41fe688a7c1400aebc34308c2d7c68def1ed98cf19e484e1c3c47a1e84",
        "category": "sast",
        "name": "node_insecure_random_generator",
        "message": "crypto.pseudoRandomBytes()/Math.random() is a cryptographically weak random number generator.",
        "description": "crypto.pseudoRandomBytes()/Math.random() is a cryptographically weak random number generator.",
        "cve": "public/vendor/adminlte/plugins/iCheck/icheck.js:152:node_insecure_random_generator:CWE-327",
        "severity": "Medium",
        "scanner": {
          "id": "nodejs-scan",
          "name": "NodeJsScan"
        },
        "location": {
          "file": "public/vendor/adminlte/plugins/iCheck/icheck.js",
          "start_line": 152,
          "end_line": 152
        },
        "identifiers": [
          {
            "type": "njsscan_rule_type",
            "name": "node_insecure_random_generator",
            "value": "crypto.pseudoRandomBytes()/Math.random() is a cryptographically weak random number generator."
          },
          {
            "type": "cwe",
            "name": "CWE-327",
            "value": "node_insecure_random_generator"
          }
        ]
      },
      {
        "id": "7d122fea766accbaf5aed2c53a26dc6e126ebabb40a23652d8ef535a8b3085f6",
        "category": "sast",
        "name": "regex_dos",
        "message": "Ensure that the regex used to compare with user supplied input is safe from regular expression denial of service.",
        "description": "Ensure that the regex used to compare with user supplied input is safe from regular expression denial of service.",
        "cve": "public/vendor/adminlte/plugins/iCheck/icheck.js:52:regex_dos:CWE-185",
        "severity": "Medium",
        "scanner": {
          "id": "nodejs-scan",
          "name": "NodeJsScan"
        },
        "location": {
          "file": "public/vendor/adminlte/plugins/iCheck/icheck.js",
          "start_line": 52,
          "end_line": 52
        },
        "identifiers": [
          {
            "type": "njsscan_rule_type",
            "name": "regex_dos",
            "value": "Ensure that the regex used to compare with user supplied input is safe from regular expression denial of service."
          },
          {
            "type": "cwe",
            "name": "CWE-185",
            "value": "regex_dos"
          }
        ]
      },
      {
        "id": "86b5735c6e4636a2aa87ad03c672892f7e6d9ede8a20faea6de642a1318a87b8",
        "category": "sast",
        "name": "regex_dos",
        "message": "Ensure that the regex used to compare with user supplied input is safe from regular expression denial of service.",
        "description": "Ensure that the regex used to compare with user supplied input is safe from regular expression denial of service.",
        "cve": "public/vendor/backpack/ckeditor/samples/old/htmlwriter/assets/outputforflash/swfobject.js:5:regex_dos:CWE-185",
        "severity": "Medium",
        "scanner": {
          "id": "nodejs-scan",
          "name": "NodeJsScan"
        },
        "location": {
          "file": "public/vendor/backpack/ckeditor/samples/old/htmlwriter/assets/outputforflash/swfobject.js",
          "start_line": 5,
          "end_line": 5
        },
        "identifiers": [
          {
            "type": "njsscan_rule_type",
            "name": "regex_dos",
            "value": "Ensure that the regex used to compare with user supplied input is safe from regular expression denial of service."
          },
          {
            "type": "cwe",
            "name": "CWE-185",
            "value": "regex_dos"
          }
        ]
      },
      {
        "id": "86b5735c6e4636a2aa87ad03c672892f7e6d9ede8a20faea6de642a1318a87b8",
        "category": "sast",
        "name": "regex_dos",
        "message": "Ensure that the regex used to compare with user supplied input is safe from regular expression denial of service.",
        "description": "Ensure that the regex used to compare with user supplied input is safe from regular expression denial of service.",
        "cve": "public/vendor/backpack/ckeditor/samples/old/htmlwriter/assets/outputforflash/swfobject.js:5:regex_dos:CWE-185",
        "severity": "Medium",
        "scanner": {
          "id": "nodejs-scan",
          "name": "NodeJsScan"
        },
        "location": {
          "file": "public/vendor/backpack/ckeditor/samples/old/htmlwriter/assets/outputforflash/swfobject.js",
          "start_line": 5,
          "end_line": 5
        },
        "identifiers": [
          {
            "type": "njsscan_rule_type",
            "name": "regex_dos",
            "value": "Ensure that the regex used to compare with user supplied input is safe from regular expression denial of service."
          },
          {
            "type": "cwe",
            "name": "CWE-185",
            "value": "regex_dos"
          }
        ]
      },
      {
        "id": "c86882f4da3428e265c0566f0f9be5ed8940b8a57bb0f3903ef401e02f75e868",
        "category": "sast",
        "name": "node_insecure_random_generator",
        "message": "crypto.pseudoRandomBytes()/Math.random() is a cryptographically weak random number generator.",
        "description": "crypto.pseudoRandomBytes()/Math.random() is a cryptographically weak random number generator.",
        "cve": "public/vendor/jstree-grid-3.9.4/jstreegrid.js:232:node_insecure_random_generator:CWE-327",
        "severity": "Medium",
        "scanner": {
          "id": "nodejs-scan",
          "name": "NodeJsScan"
        },
        "location": {
          "file": "public/vendor/jstree-grid-3.9.4/jstreegrid.js",
          "start_line": 232,
          "end_line": 232
        },
        "identifiers": [
          {
            "type": "njsscan_rule_type",
            "name": "node_insecure_random_generator",
            "value": "crypto.pseudoRandomBytes()/Math.random() is a cryptographically weak random number generator."
          },
          {
            "type": "cwe",
            "name": "CWE-327",
            "value": "node_insecure_random_generator"
          }
        ]
      },
      {
        "id": "d34c537e895b3fc3beeb289f0330b80143489f19329cf5ce5aaab62221b566a3",
        "category": "sast",
        "name": "node_insecure_random_generator",
        "message": "crypto.pseudoRandomBytes()/Math.random() is a cryptographically weak random number generator.",
        "description": "crypto.pseudoRandomBytes()/Math.random() is a cryptographically weak random number generator.",
        "cve": "public/vendor/jstree-grid-3.9.4/jstreegrid.js:677:node_insecure_random_generator:CWE-327",
        "severity": "Medium",
        "scanner": {
          "id": "nodejs-scan",
          "name": "NodeJsScan"
        },
        "location": {
          "file": "public/vendor/jstree-grid-3.9.4/jstreegrid.js",
          "start_line": 677,
          "end_line": 677
        },
        "identifiers": [
          {
            "type": "njsscan_rule_type",
            "name": "node_insecure_random_generator",
            "value": "crypto.pseudoRandomBytes()/Math.random() is a cryptographically weak random number generator."
          },
          {
            "type": "cwe",
            "name": "CWE-327",
            "value": "node_insecure_random_generator"
          }
        ]
      },
      {
        "id": "06eb1310ac2de4a515b4a413b48b21ea3a0393d6acf675ba2e04d016fe839ec9",
        "category": "sast",
        "name": "node_insecure_random_generator",
        "message": "crypto.pseudoRandomBytes()/Math.random() is a cryptographically weak random number generator.",
        "description": "crypto.pseudoRandomBytes()/Math.random() is a cryptographically weak random number generator.",
        "cve": "public/vendor/jstree-grid-3.9.4/jstreegrid.js:854:node_insecure_random_generator:CWE-327",
        "severity": "Medium",
        "scanner": {
          "id": "nodejs-scan",
          "name": "NodeJsScan"
        },
        "location": {
          "file": "public/vendor/jstree-grid-3.9.4/jstreegrid.js",
          "start_line": 854,
          "end_line": 854
        },
        "identifiers": [
          {
            "type": "njsscan_rule_type",
            "name": "node_insecure_random_generator",
            "value": "crypto.pseudoRandomBytes()/Math.random() is a cryptographically weak random number generator."
          },
          {
            "type": "cwe",
            "name": "CWE-327",
            "value": "node_insecure_random_generator"
          }
        ]
      }
    ],
    "remediations": [],
    "scan": {
      "scanner": {
        "id": "njsscan",
        "name": "njsscan",
        "url": "https://github.com/ajinabraham/njsscan",
        "vendor": {
          "name": "GitLab"
        },
        "version": "0.2.6"
      },
      "type": "sast",
      "start_time": "2021-06-01T05:26:36",
      "end_time": "2021-06-01T05:44:51",
      "status": "success"
    }
  }
  